<svg width="182" height="182" viewBox="0 0 182 182" fill="none" xmlns="http://www.w3.org/2000/svg">
<mask id="mask0_341_7" style="mask-type:alpha" maskUnits="userSpaceOnUse" x="0" y="0" width="182" height="182">
<rect x="0.5" y="0.5" width="181" height="181" fill="#D9D9D9" stroke="#A9B8ED"/>
</mask>
<g mask="url(#mask0_341_7)">
<path d="M5.87699 136.569C4.24165 136.569 2.85173 135.991 1.68054 134.819C0.509348 133.648 -0.0688477 132.258 -0.0688477 130.623V126.452C-0.0688477 121.484 2.45708 117.493 7.64559 114.466C12.852 111.429 19.77 109.89 28.4374 109.89C29.693 109.89 30.9805 109.921 32.3001 109.984C33.3593 110.034 34.3562 110.105 35.2909 110.196C34.4011 112.303 33.7228 114.465 33.2565 116.68C32.7432 119.118 32.4874 121.681 32.4874 124.367V136.569H5.87699ZM51.377 136.569C49.7417 136.569 48.3517 135.991 47.1805 134.819C46.0093 133.648 45.4312 132.258 45.4312 130.623V124.367C45.4312 116.234 49.5423 109.586 57.8965 104.411C66.2607 99.2306 77.2823 96.6187 90.9999 96.6187C104.717 96.6187 115.739 99.2306 124.103 104.411C132.458 109.586 136.569 116.234 136.569 124.367V130.623C136.569 132.258 135.99 133.648 134.819 134.819C133.648 135.99 132.258 136.569 130.623 136.569H51.377ZM149.512 136.569V124.367C149.512 121.681 149.257 119.118 148.743 116.68C148.277 114.465 147.599 112.303 146.709 110.196C147.644 110.105 148.641 110.034 149.7 109.984C151.019 109.921 152.307 109.89 153.562 109.89C162.101 109.89 168.99 111.428 174.262 114.467C179.514 117.495 182.069 121.487 182.069 126.452V130.623C182.069 132.258 181.49 133.648 180.319 134.819C179.148 135.99 177.758 136.569 176.123 136.569H149.512ZM28.4374 103.392C24.7768 103.392 21.6815 102.116 19.1222 99.5568C16.5629 96.9975 15.2874 93.9022 15.2874 90.2416C15.2874 86.581 16.5629 83.4857 19.1222 80.9264C21.6815 78.3671 24.7768 77.0916 28.4374 77.0916C32.098 77.0916 35.1933 78.3671 37.7526 80.9264C40.3119 83.4857 41.5874 86.581 41.5874 90.2416C41.5874 93.9022 40.3119 96.9975 37.7526 99.5568C35.1933 102.116 32.098 103.392 28.4374 103.392ZM153.562 103.392C149.902 103.392 146.807 102.116 144.247 99.5568C141.688 96.9975 140.412 93.9022 140.412 90.2416C140.412 86.581 141.688 83.4857 144.247 80.9264C146.807 78.3671 149.902 77.0916 153.562 77.0916C157.223 77.0916 160.318 78.3671 162.878 80.9264C165.437 83.4857 166.712 86.581 166.712 90.2416C166.712 93.9022 165.437 96.9975 162.878 99.5568C160.318 102.116 157.223 103.392 153.562 103.392ZM90.9999 89.9312C84.6842 89.9312 79.3128 87.7386 74.8572 83.345C70.4055 78.9551 68.1812 73.5551 68.1812 67.1124C68.1812 60.7991 70.4034 55.4614 74.8572 51.0695C79.3128 46.6759 84.6842 44.4833 90.9999 44.4833C97.3156 44.4833 102.687 46.6759 107.143 51.0695C111.596 55.4614 113.819 60.7991 113.819 67.1124C113.819 73.5551 111.594 78.9551 107.143 83.345C102.687 87.7386 97.3156 89.9312 90.9999 89.9312Z" fill="url(#paint0_linear_341_7)" stroke="#A9B8ED"/>
</g>
<defs>
<linearGradient id="paint0_linear_341_7" x1="90.9999" y1="43.9833" x2="90.9999" y2="137.069" gradientUnits="userSpaceOnUse">
<stop stop-color="#A9B8ED"/>
<stop offset="1" stop-color="#A9B8ED" stop-opacity="0"/>
</linearGradient>
</defs>
</svg>
