<svg width="24" height="24" viewBox="0 0 24 24" fill="none" xmlns="http://www.w3.org/2000/svg">
<mask id="mask0_50_713" style="mask-type:alpha" maskUnits="userSpaceOnUse" x="0" y="0" width="24" height="24">
<rect width="24" height="24" fill="#D9D9D9"/>
</mask>
<g mask="url(#mask0_50_713)">
<path d="M5.9501 21.2C5.18343 21.2 4.41276 21 3.6381 20.6C2.86276 20.2 2.2251 19.6417 1.7251 18.925C2.19176 18.925 2.6501 18.7627 3.1001 18.438C3.5501 18.1127 3.78343 17.625 3.8001 16.975C3.83343 16.125 4.1501 15.4 4.7501 14.8C5.3501 14.2 6.08343 13.9 6.9501 13.9C7.81676 13.9 8.55843 14.204 9.1751 14.812C9.79176 15.4207 10.1001 16.1667 10.1001 17.05C10.1001 18.2 9.6961 19.179 8.8881 19.987C8.07943 20.7957 7.1001 21.2 5.9501 21.2ZM5.9501 19.05C6.5001 19.05 6.9711 18.854 7.3631 18.462C7.75443 18.0707 7.9501 17.6 7.9501 17.05C7.9501 16.7667 7.8541 16.529 7.6621 16.337C7.47076 16.1457 7.23343 16.05 6.9501 16.05C6.66676 16.05 6.42943 16.1457 6.2381 16.337C6.0461 16.529 5.9501 16.7667 5.9501 17.05C5.9501 17.4334 5.9041 17.7834 5.8121 18.1C5.72076 18.4167 5.6001 18.7167 5.4501 19C5.53343 19.0334 5.61676 19.05 5.7001 19.05H5.9501ZM11.8751 15.075L8.9251 12.125L18.1501 2.90003C18.3334 2.7167 18.5624 2.6207 18.8371 2.61203C19.1124 2.60403 19.3501 2.70003 19.5501 2.90003L21.1001 4.45003C21.3001 4.65003 21.4001 4.88337 21.4001 5.15003C21.4001 5.4167 21.3001 5.65003 21.1001 5.85003L11.8751 15.075Z" fill="white"/>
</g>
</svg>
