<svg width="62" height="62" viewBox="0 0 62 62" fill="none" xmlns="http://www.w3.org/2000/svg">
<mask id="mask0_35_77" style="mask-type:alpha" maskUnits="userSpaceOnUse" x="0" y="0" width="62" height="62">
<rect width="62" height="62" fill="#D9D9D9"/>
</mask>
<g mask="url(#mask0_35_77)">
<path d="M31.0001 60.8376C30.2682 60.8376 29.6438 60.5793 29.1272 60.0626C28.6105 59.5459 28.3522 58.9216 28.3522 58.1897V55.9938C22.3675 55.348 17.2977 52.9477 13.1428 48.7928C8.98795 44.6379 6.60913 39.5897 6.00635 33.648H3.81051C3.07857 33.648 2.45426 33.3897 1.9376 32.873C1.42093 32.3563 1.1626 31.732 1.1626 31.0001C1.1626 30.2682 1.42093 29.6438 1.9376 29.1272C2.45426 28.6105 3.07857 28.3522 3.81051 28.3522H6.00635C6.65218 22.3675 9.05253 17.2977 13.2074 13.1428C17.3623 8.98795 22.4105 6.60913 28.3522 6.00635V3.81051C28.3522 3.07857 28.6105 2.45426 29.1272 1.9376C29.6438 1.42093 30.2682 1.1626 31.0001 1.1626C31.732 1.1626 32.3563 1.42093 32.873 1.9376C33.3897 2.45426 33.648 3.07857 33.648 3.81051V6.00635C39.5897 6.60913 44.6379 8.98795 48.7928 13.1428C52.9477 17.2977 55.348 22.3675 55.9938 28.3522H58.1897C58.9216 28.3522 59.5459 28.6105 60.0626 29.1272C60.5793 29.6438 60.8376 30.2682 60.8376 31.0001C60.8376 31.732 60.5793 32.3563 60.0626 32.873C59.5459 33.3897 58.9216 33.648 58.1897 33.648H55.9938C55.3911 39.5897 53.0122 44.6379 48.8574 48.7928C44.7025 52.9477 39.6327 55.348 33.648 55.9938V58.1897C33.648 58.9216 33.3897 59.5459 32.873 60.0626C32.3563 60.5793 31.732 60.8376 31.0001 60.8376ZM31.0001 50.0522C36.2529 50.0522 40.7414 48.19 44.4657 44.4657C48.19 40.7414 50.0522 36.2529 50.0522 31.0001C50.0522 25.7473 48.19 21.2588 44.4657 17.5345C40.7414 13.8102 36.2529 11.948 31.0001 11.948C25.7473 11.948 21.2588 13.8102 17.5345 17.5345C13.8102 21.2588 11.948 25.7473 11.948 31.0001C11.948 36.2529 13.8102 40.7414 17.5345 44.4657C21.2588 48.19 25.7473 50.0522 31.0001 50.0522ZM31.0001 40.6876C28.2876 40.6876 25.9949 39.7511 24.122 37.8782C22.2491 36.0053 21.3126 33.7126 21.3126 31.0001C21.3126 28.2876 22.2491 25.9949 24.122 24.122C25.9949 22.2491 28.2876 21.3126 31.0001 21.3126C33.7126 21.3126 36.0053 22.2491 37.8782 24.122C39.7511 25.9949 40.6876 28.2876 40.6876 31.0001C40.6876 33.7126 39.7511 36.0053 37.8782 37.8782C36.0053 39.7511 33.7126 40.6876 31.0001 40.6876ZM31.0001 35.3272C32.2057 35.3272 33.2282 34.9182 34.0678 34.1001C34.9074 33.282 35.3272 32.2487 35.3272 31.0001C35.3272 29.7945 34.9182 28.772 34.1001 27.9324C33.282 27.0928 32.2487 26.673 31.0001 26.673C29.7945 26.673 28.772 27.082 27.9324 27.9001C27.0928 28.7182 26.673 29.7515 26.673 31.0001C26.673 32.2057 27.082 33.2282 27.9001 34.0678C28.7182 34.9074 29.7515 35.3272 31.0001 35.3272Z" fill="white"/>
</g>
</svg>
