<svg width="62" height="62" viewBox="0 0 62 62" fill="none" xmlns="http://www.w3.org/2000/svg">
<mask id="mask0_281_8" style="mask-type:alpha" maskUnits="userSpaceOnUse" x="0" y="0" width="62" height="62">
<rect width="62" height="62" fill="#D9D9D9"/>
</mask>
<g mask="url(#mask0_281_8)">
<path d="M23.1853 42.3665C21.42 42.3665 19.9346 41.7637 18.729 40.5581C17.5234 39.3526 16.9207 37.8672 16.9207 36.1019C16.9207 34.3366 17.5234 32.8512 18.729 31.6456C19.9346 30.4401 21.42 29.8373 23.1853 29.8373C24.9505 29.8373 26.4359 30.4401 27.6415 31.6456C28.8471 32.8512 29.4498 34.3366 29.4498 36.1019C29.4498 37.8672 28.8471 39.3526 27.6415 40.5581C26.4359 41.7637 24.9505 42.3665 23.1853 42.3665ZM12.2061 58.4477C10.5269 58.4477 9.09532 57.8557 7.9113 56.6717C6.72727 55.4876 6.13525 54.0561 6.13525 52.3769V13.4977C6.13525 11.8186 6.72727 10.3762 7.9113 9.17064C9.09532 7.96508 10.5269 7.3623 12.2061 7.3623H15.8228V6.13522C15.8228 5.44633 16.0919 4.83279 16.63 4.2946C17.1682 3.7564 17.7818 3.4873 18.4707 3.4873C19.2026 3.4873 19.8269 3.7564 20.3436 4.2946C20.8603 4.83279 21.1186 5.44633 21.1186 6.13522V7.3623H40.8811V6.13522C40.8811 5.44633 41.1502 4.83279 41.6884 4.2946C42.2266 3.7564 42.8401 3.4873 43.529 3.4873C44.261 3.4873 44.8853 3.7564 45.4019 4.2946C45.9186 4.83279 46.1769 5.44633 46.1769 6.13522V7.3623H49.7936C51.4728 7.3623 52.9151 7.96508 54.1207 9.17064C55.3262 10.3762 55.929 11.8186 55.929 13.4977V52.3769C55.929 54.0561 55.3262 55.4876 54.1207 56.6717C52.9151 57.8557 51.4728 58.4477 49.7936 58.4477H12.2061ZM12.2061 52.3769H49.7936V25.1873H12.2061V52.3769ZM12.2061 21.3123H49.7936V13.4977H12.2061V21.3123Z" fill="white"/>
</g>
</svg>
